-------------------------------------------------------------------------------
Test set: cl.hermann.app.rest.api.v1.impl.DatosPersonaRestImplTest
-------------------------------------------------------------------------------
Tests run: 4, Failures: 0, Errors: 0, Skipped: 0, Time elapsed: 0.416 s - in cl.hermann.app.rest.api.v1.impl.DatosPersonaRestImplTest
